v 20130925 2
C 50100 47500 1 180 1 dual-opamp-1.sym
{
T 50300 45200 5 10 0 0 180 6 1
device=DUAL_OPAMP
T 50100 47800 5 10 1 1 180 6 1
refdes=U8
T 50300 45600 5 10 0 0 180 6 1
footprint=MSOP8
T 50300 45000 5 10 0 0 180 6 1
symversion=0.2
T 50100 47500 5 10 0 0 0 0 1
slot=2
}
C 50200 45800 1 0 0 resistor-2.sym
{
T 50600 46150 5 10 0 0 0 0 1
device=RESISTOR
T 50500 46100 5 10 1 1 0 0 1
refdes=R15
T 50500 45600 5 10 1 1 0 0 1
value=10K
T 50200 45800 5 10 0 1 0 0 1
footprint=0603
}
C 50000 44200 1 90 0 resistor-2.sym
{
T 49650 44600 5 10 0 0 90 0 1
device=RESISTOR
T 49700 44500 5 10 1 1 90 0 1
refdes=R14
T 50200 44500 5 10 1 1 90 0 1
value=10K
T 50000 44200 5 10 0 1 0 0 1
footprint=0603
}
C 49300 45500 1 90 0 resistor-2.sym
{
T 48950 45900 5 10 0 0 90 0 1
device=RESISTOR
T 49000 45800 5 10 1 1 90 0 1
refdes=R12
T 49500 45800 5 10 1 1 90 0 1
value=1K
T 49300 45500 5 10 0 1 0 0 1
footprint=0603
}
C 48700 44400 1 0 0 IRLML2030.sym
{
T 49300 44600 5 10 0 1 0 0 1
device=BSS138
T 49300 44900 5 10 0 0 0 0 1
footprint=SOT23
T 48700 45200 5 10 1 1 0 0 1
refdes=VT3
}
C 50700 47800 1 180 0 gnd-1.sym
N 49200 46900 50100 46900 4
N 49900 45100 49900 46900 4
N 49900 45900 50200 45900 4
N 51100 45900 51300 45900 4
N 51300 43500 51300 47100 4
N 51300 47100 51100 47100 4
N 49200 46900 49200 46400 4
N 49200 44000 49900 44000 4
N 49900 44000 49900 44200 4
C 49800 43700 1 0 0 gnd-1.sym
N 49200 44000 49200 44400 4
N 49200 45200 49200 45500 4
N 50200 45300 49900 45300 4
N 51100 45300 51300 45300 4
C 50200 45100 1 0 0 capacitor-1.sym
{
T 50400 45800 5 10 0 0 0 0 1
device=CAPACITOR
T 50300 44900 5 10 1 1 0 0 1
refdes=C12
T 50400 46000 5 10 0 0 0 0 1
symversion=0.1
T 50800 44900 5 10 1 1 0 0 1
value=4700
T 50200 45100 5 10 0 1 0 0 1
footprint=0603
}
C 47200 46900 1 0 0 mq-x.sym
{
T 47200 47600 9 8 1 1 0 0 1
device=MQ-3
T 47300 46850 5 10 1 1 0 0 1
refdes=U5
T 48150 47100 5 10 0 1 0 0 1
footprint=mq-x
}
N 47300 47300 47100 47300 4
N 47100 47300 47100 46400 4
N 47100 46400 48500 46400 4
N 47800 46400 47800 46900 4
N 48300 47300 50100 47300 4
C 47700 46100 1 0 0 gnd-1.sym
C 48600 47500 1 90 0 resistor-2.sym
{
T 48250 47900 5 10 0 0 90 0 1
device=RESISTOR
T 48300 47800 5 10 1 1 90 0 1
refdes=R11
T 48800 47700 5 10 1 1 90 0 1
value=100K
T 48600 47500 5 10 0 1 0 0 1
footprint=0603
}
N 48500 47500 48500 47300 4
C 48700 46400 1 90 0 capacitor-1.sym
{
T 48000 46600 5 10 0 0 90 0 1
device=CAPACITOR
T 48200 46700 5 10 1 1 90 0 1
refdes=C8
T 47800 46600 5 10 0 0 90 0 1
symversion=0.1
T 49000 46700 5 10 1 1 90 0 1
value=1 uF
T 48700 46400 5 10 0 0 0 0 1
footprint=0603
}
N 47800 47700 47800 48600 4
N 46900 48600 51300 48600 4
{
T 46900 48700 5 10 1 1 0 0 1
netname=Vpwr
}
N 48500 48400 48500 48600 4
C 35100 50800 1 0 0 MC33063A.sym
{
T 36000 51600 5 10 0 1 0 0 1
footprint=SO8
T 35600 52100 5 8 1 1 0 0 1
device=MC33063A
T 35800 52500 5 10 1 1 0 0 1
refdes=U2
}
C 33600 51700 1 90 0 resistor-2.sym
{
T 33250 52100 5 10 0 0 90 0 1
device=RESISTOR
T 33600 51700 5 10 0 1 0 0 1
footprint=1206
T 33300 52000 5 10 1 1 90 0 1
refdes=R3
T 33800 52000 5 10 1 1 90 0 1
value=0.22
}
N 34000 51800 35100 51800 4
N 34000 51800 34000 52700 4
C 35000 52600 1 0 0 inductor-1.sym
{
T 35200 53100 5 10 0 0 0 0 1
device=INDUCTOR
T 35200 53300 5 10 0 0 0 0 1
symversion=0.1
T 35000 52600 5 10 0 0 0 0 1
footprint=CDRH104R
T 35300 53100 5 10 1 1 180 0 1
refdes=L1
T 36000 53300 5 10 1 1 180 0 1
value=22 uH
}
N 37000 52700 37000 52200 4
N 36900 52200 37200 52200 4
C 37800 51600 1 180 0 capacitor-1.sym
{
T 37600 50900 5 10 0 0 180 0 1
device=CAPACITOR
T 37600 50700 5 10 0 0 180 0 1
symversion=0.1
T 37800 51600 5 10 0 0 180 0 1
footprint=0805
T 37200 51600 5 10 1 1 180 0 1
refdes=C2
T 37200 51300 5 10 1 1 180 0 1
value=330
}
C 37700 50700 1 0 0 gnd-1.sym
N 33500 51700 33500 51400 4
N 33500 52600 33500 52700 4
N 36900 51000 37800 51000 4
C 34200 52100 1 0 0 resistor-2.sym
{
T 34600 52450 5 10 0 0 0 0 1
device=RESISTOR
T 34200 52100 5 10 0 1 0 0 1
footprint=0603
T 34500 52400 5 10 1 1 0 0 1
refdes=R5
T 34500 51900 5 10 1 1 0 0 1
value=180
}
N 34200 52200 34000 52200 4
N 33500 52700 35000 52700 4
N 35900 52700 37000 52700 4
N 37800 51000 37800 51800 4
N 36900 51800 37800 51800 4
C 37200 52000 1 0 0 schottky-1.sym
{
T 37522 52672 5 10 0 0 0 0 1
device=SS34
T 37541 52832 5 10 0 1 0 0 1
footprint=DO214AC
T 37500 52600 5 10 1 1 0 0 1
refdes=VD1
}
C 36300 50200 1 0 0 resistor-2.sym
{
T 36700 50550 5 10 0 0 0 0 1
device=RESISTOR
T 36300 50200 5 10 0 1 0 0 1
footprint=0603
T 36600 50500 5 10 1 1 0 0 1
refdes=R6
T 36500 50000 5 10 1 1 0 0 1
value=47K
}
C 33900 50200 1 0 0 resistor-2.sym
{
T 34300 50550 5 10 0 0 0 0 1
device=RESISTOR
T 33900 50200 5 10 0 1 0 0 1
footprint=0603
T 34200 50500 5 10 1 1 0 0 1
refdes=R4
T 34100 50000 5 10 1 1 0 0 1
value=15K
}
C 38400 52000 1 270 0 capacitor-2.sym
{
T 39100 51800 5 10 0 0 270 0 1
device=POLARIZED_CAPACITOR
T 39300 51800 5 10 0 0 270 0 1
symversion=0.1
T 38400 52000 5 10 0 0 0 0 1
footprint=TANT_D
T 38300 51100 5 10 1 1 90 0 1
refdes=C3
T 38300 51500 5 10 1 1 90 0 1
value=470 uF
}
C 33300 51400 1 270 0 capacitor-2.sym
{
T 34000 51200 5 10 0 0 270 0 1
device=POLARIZED_CAPACITOR
T 34200 51200 5 10 0 0 270 0 1
symversion=0.1
T 33300 51400 5 10 0 0 0 0 1
footprint=TANT_B
T 33200 50600 5 10 1 1 90 0 1
refdes=C1
T 34000 50700 5 10 1 1 90 0 1
value=100 uF
}
N 38100 50300 38100 52700 4
N 38100 50300 37200 50300 4
N 36300 50300 34800 50300 4
N 33900 50300 33500 50300 4
N 33500 50300 33500 50500 4
C 33400 50000 1 0 0 gnd-1.sym
N 35100 51000 35100 50300 4
N 38600 52200 38600 52000 4
C 38500 50800 1 0 0 gnd-1.sym
N 35100 51400 33300 51400 4
N 38100 52200 39500 52200 4
{
T 39200 52300 5 10 1 1 0 0 1
netname=Vcc
}
C 32500 50900 1 270 1 IRLML6402.sym
{
T 33200 51800 5 10 0 1 0 6 1
device=IRLML6402
T 33000 51500 5 10 0 0 270 6 1
footprint=SOT23
T 33200 51600 5 10 1 1 0 6 1
refdes=VT1
}
C 38200 45500 1 270 1 IRLML6402.sym
{
T 38900 46400 5 10 0 1 0 6 1
device=IRLML6402
T 38700 46100 5 10 0 0 270 6 1
footprint=SOT23
T 38900 46200 5 10 1 1 0 6 1
refdes=VT2
}
C 47500 53100 1 0 0 LP2985.sym
{
T 48400 53200 5 8 1 1 0 0 1
device=LP2985
T 49900 54100 5 10 0 1 0 0 1
footprint=SOT23-5
T 48500 54700 5 10 1 1 0 0 1
refdes=U7
}
C 47600 52900 1 90 0 capacitor-1.sym
{
T 46900 53100 5 10 0 0 90 0 1
device=CAPACITOR
T 47200 52900 5 10 1 1 90 0 1
refdes=C7
T 46700 53100 5 10 0 0 90 0 1
symversion=0.1
T 47800 52700 5 10 1 1 90 0 1
value=0.01 uF
T 47600 52900 5 10 0 0 0 0 1
footprint=0805
}
N 47500 53800 47400 53800 4
C 47300 52600 1 0 0 gnd-1.sym
C 48200 52800 1 0 0 gnd-1.sym
C 49300 52800 1 0 0 gnd-1.sym
C 49700 54800 1 90 0 gnd-1.sym
C 48500 54700 1 0 0 capacitor-1.sym
{
T 48700 55400 5 10 0 0 0 0 1
device=CAPACITOR
T 48600 55200 5 10 1 1 0 0 1
refdes=C9
T 48700 55600 5 10 0 0 0 0 1
symversion=0.1
T 49100 55200 5 10 1 1 0 0 1
value=1 uF
T 48500 54700 5 10 0 0 0 0 1
footprint=0603
}
C 49600 53100 1 90 0 capacitor-1.sym
{
T 48900 53300 5 10 0 0 90 0 1
device=CAPACITOR
T 49200 53100 5 10 1 1 90 0 1
refdes=C10
T 48700 53300 5 10 0 0 90 0 1
symversion=0.1
T 49800 53200 5 10 1 1 90 0 1
value=2.2 uF
T 49600 53100 5 10 0 0 0 0 1
footprint=0805
}
N 46900 54900 48500 54900 4
{
T 46900 55000 5 10 1 1 0 0 1
netname=Vpwr
}
N 47400 54900 47400 54200 4
N 47500 54200 47400 54200 4
N 49100 54000 50200 54000 4
C 50300 48800 1 0 0 oled-ssd1306-i2c.sym
{
T 51350 48950 5 8 1 1 0 5 1
device=SSD1306-I2C
T 51700 52700 5 10 1 1 0 0 1
refdes=HG1
T 50300 48800 5 10 0 0 0 0 1
footprint=ssd1306-091
}
N 50300 52000 50200 52000 4
N 50200 52000 50200 52400 4
N 48300 52400 50300 52400 4
C 49300 51800 1 0 0 capacitor-1.sym
{
T 49500 52500 5 10 0 0 0 0 1
device=CAPACITOR
T 49400 52100 5 10 1 1 0 0 1
refdes=C11
T 49500 52700 5 10 0 0 0 0 1
symversion=0.1
T 49600 51500 5 10 1 1 0 0 1
value=1 uF
T 49300 51800 5 10 0 0 0 0 1
footprint=0603
}
C 49200 51700 1 0 0 gnd-1.sym
C 50100 48900 1 0 0 gnd-1.sym
C 52400 48900 1 0 0 gnd-1.sym
N 52500 49200 52400 49200 4
N 50200 49200 50300 49200 4
C 52500 52200 1 0 0 capacitor-1.sym
{
T 52700 52900 5 10 0 0 0 0 1
device=CAPACITOR
T 52500 52500 5 10 1 1 0 0 1
refdes=C14
T 52700 53100 5 10 0 0 0 0 1
symversion=0.1
T 53100 52500 5 10 1 1 0 0 1
value=1 uF
T 52500 52200 5 10 0 0 0 0 1
footprint=0805
}
C 52500 51000 1 0 0 capacitor-1.sym
{
T 52700 51700 5 10 0 0 0 0 1
device=CAPACITOR
T 52500 50900 5 10 1 1 0 0 1
refdes=C15
T 52700 51900 5 10 0 0 0 0 1
symversion=0.1
T 53100 50900 5 10 1 1 0 0 1
value=1 uF
T 52500 51000 5 10 0 0 0 0 1
footprint=0805
}
N 53400 52400 53400 52000 4
N 53400 52000 52400 52000 4
N 53400 51200 53400 51600 4
N 53400 51600 52400 51600 4
C 52500 49800 1 0 0 capacitor-1.sym
{
T 52700 50500 5 10 0 0 0 0 1
device=CAPACITOR
T 52500 50100 5 10 1 1 0 0 1
refdes=C16
T 52700 50700 5 10 0 0 0 0 1
symversion=0.1
T 53100 50100 5 10 1 1 0 0 1
value=2.2 uF
T 52500 49800 5 10 0 0 0 0 1
footprint=0805
}
N 52500 50000 52400 50000 4
N 52500 51200 52400 51200 4
N 52500 52400 52400 52400 4
C 53700 49900 1 90 0 gnd-1.sym
C 52500 50300 1 0 0 resistor-2.sym
{
T 52900 50650 5 10 0 0 0 0 1
device=RESISTOR
T 52500 50600 5 10 1 1 0 0 1
refdes=R16
T 53000 50600 5 10 1 1 0 0 1
value=390K
T 52500 50300 5 10 0 0 0 0 1
footprint=0603
}
N 52400 50400 52500 50400 4
C 53700 50300 1 90 0 gnd-1.sym
C 53100 49100 1 0 0 capacitor-1.sym
{
T 53300 49800 5 10 0 0 0 0 1
device=CAPACITOR
T 53100 49400 5 10 1 1 0 0 1
refdes=C17
T 53300 50000 5 10 0 0 0 0 1
symversion=0.1
T 53700 49400 5 10 1 1 0 0 1
value=2.2 uF
T 53100 49100 5 10 0 0 0 0 1
footprint=0805
}
C 53100 48500 1 0 0 capacitor-1.sym
{
T 53300 49200 5 10 0 0 0 0 1
device=CAPACITOR
T 53100 48800 5 10 1 1 0 0 1
refdes=C18
T 53300 49400 5 10 0 0 0 0 1
symversion=0.1
T 53700 48800 5 10 1 1 0 0 1
value=0.1 uF
T 53100 48500 5 10 0 0 0 0 1
footprint=0603
}
N 52400 49600 52900 49600 4
C 54300 49200 1 90 0 gnd-1.sym
C 54300 48600 1 90 0 gnd-1.sym
N 52900 49600 52900 48700 4
N 52900 48700 53100 48700 4
N 53100 49300 52900 49300 4
C 48900 50100 1 0 1 TXS0102DCUR.sym
{
T 46900 51400 5 10 0 1 0 6 1
footprint=VSSOP8
T 48400 51350 5 8 1 1 0 6 1
device=TXS0102
T 47500 51700 5 10 1 1 0 6 1
refdes=U6
}
N 48300 52300 48300 52400 4
N 48900 51600 49000 51600 4
N 49000 50400 49000 52400 4
N 48900 51200 50300 51200 4
N 48900 50800 50300 50800 4
C 49200 50300 1 0 0 resistor-2.sym
{
T 49600 50650 5 10 0 0 0 0 1
device=RESISTOR
T 49500 50600 5 10 1 1 0 0 1
refdes=R13
T 49500 50100 5 10 1 1 0 0 1
value=10K
T 49200 50300 5 10 0 0 0 0 1
footprint=0603
}
N 49000 50400 49200 50400 4
N 50100 50400 50300 50400 4
C 49700 49400 1 0 0 IRLML2030.sym
{
T 50300 49600 5 10 0 1 0 0 1
device=BSS138
T 50300 49900 5 10 0 0 0 0 1
footprint=SOT23
T 49600 49300 5 10 1 1 0 0 1
refdes=VT4
}
N 50200 50200 50200 50400 4
N 50200 49400 50200 49200 4
C 48000 49800 1 0 0 gnd-1.sym
N 46900 49600 49700 49600 4
{
T 46900 49700 5 10 1 1 0 0 1
netname=DRST
}
N 50200 54000 50200 52400 4
N 47900 52300 47900 52400 4
N 46900 52400 47900 52400 4
{
T 46900 52500 5 10 1 1 0 0 1
netname=Vpwr
}
C 32300 50100 1 90 0 resistor-2.sym
{
T 31950 50500 5 10 0 0 90 0 1
device=RESISTOR
T 32300 50100 5 10 0 1 90 0 1
footprint=0603
T 32000 50400 5 10 1 1 90 0 1
refdes=R2
T 32500 50300 5 10 1 1 90 0 1
value=47K
}
N 32500 51400 32200 51400 4
N 32200 51000 32200 53400 4
N 32200 49800 39500 49800 4
{
T 39200 49900 5 10 1 1 0 0 1
netname=\_ON\_
}
N 32700 49800 32700 50900 4
N 32200 49800 32200 50100 4
C 38000 45000 1 90 0 resistor-2.sym
{
T 37650 45400 5 10 0 0 90 0 1
device=RESISTOR
T 38000 45000 5 10 0 1 90 0 1
footprint=0603
T 37700 45300 5 10 1 1 90 0 1
refdes=R7
T 38200 45200 5 10 1 1 90 0 1
value=47K
}
N 38200 46000 37900 46000 4
N 37900 45900 37900 46400 4
N 37900 45000 37900 44900 4
N 37900 44900 39500 44900 4
{
T 39100 45000 5 10 1 1 0 0 1
netname=\_PWR\_
}
N 38400 44900 38400 45500 4
C 37200 53200 1 0 0 schottky-1.sym
{
T 37522 53872 5 10 0 0 0 0 1
device=BAT54WS
T 37541 54032 5 10 0 1 0 0 1
footprint=SOD323-2
T 38000 53600 5 10 1 1 0 0 1
refdes=VD3
}
N 37200 53400 32200 53400 4
C 38100 52500 1 0 0 schottky-1.sym
{
T 38422 53172 5 10 0 0 0 0 1
device=BAT54WS
T 38441 53332 5 10 0 1 0 0 1
footprint=SOD323-2
T 38400 53000 5 10 1 1 0 0 1
refdes=VD4
}
N 39000 52700 39000 54600 4
N 39500 48000 38900 48000 4
{
T 39000 48100 5 10 1 1 0 0 1
netname=MISO
}
N 39500 46800 37100 46800 4
{
T 38900 46900 5 10 1 1 0 0 1
netname=\_RESET\_
}
N 39500 48400 38900 48400 4
{
T 39100 48500 5 10 1 1 0 0 1
netname=SCK
}
N 39500 47600 38900 47600 4
{
T 39000 47700 5 10 1 1 0 0 1
netname=MOSI
}
C 38900 47400 1 0 1 header6-2.sym
{
T 38900 48600 5 10 0 1 0 6 1
device=HEADER8
T 38900 47400 5 10 0 0 0 0 1
footprint=HDR_50_6_M.fp
T 38300 47100 5 10 1 1 0 6 1
refdes=XS2
}
C 37400 47300 1 0 0 gnd-1.sym
N 37500 48000 37100 48000 4
N 37100 48000 37100 46800 4
C 39500 48400 1 180 1 busripper-1.sym
{
T 39500 48000 5 8 0 0 180 6 1
device=none
}
C 39500 48000 1 180 1 busripper-1.sym
{
T 39500 47600 5 8 0 0 180 6 1
device=none
}
C 39500 47600 1 180 1 busripper-1.sym
{
T 39500 47200 5 8 0 0 180 6 1
device=none
}
C 39500 46800 1 180 1 busripper-1.sym
{
T 39500 46400 5 8 0 0 180 6 1
device=none
}
N 41400 54600 39900 54600 4
{
T 39900 54700 5 10 1 1 0 0 1
netname=\_RESET\_
}
C 39900 54600 1 180 0 busripper-1.sym
U 39700 55400 46700 55400 10 0
U 46700 55400 46700 43200 10 -1
C 46500 47000 1 270 0 busripper-1.sym
C 46500 46600 1 270 0 busripper-1.sym
N 45700 46600 46500 46600 4
{
T 46000 46700 5 10 1 1 0 0 1
netname=MISO
}
N 45700 47000 46500 47000 4
{
T 46000 47100 5 10 1 1 0 0 1
netname=MOSI
}
U 39700 55400 39700 44600 10 -1
N 45700 46200 46500 46200 4
{
T 46100 46300 5 10 1 1 0 0 1
netname=SCK
}
C 46500 46200 1 270 0 busripper-1.sym
{
T 46900 46200 5 8 0 0 270 0 1
device=none
}
C 41400 45600 1 0 0 ATmega168-TQFP.sym
{
T 41700 53000 5 10 0 0 0 0 1
device=ATMEGA168
T 41700 52800 5 10 0 0 0 0 1
footprint=TQFP32_7
T 43700 50450 5 10 1 1 0 6 1
refdes=U4
}
C 40200 52800 1 0 0 capacitor-1.sym
{
T 40400 53500 5 10 0 0 0 0 1
device=CAPACITOR
T 40400 53700 5 10 0 0 0 0 1
symversion=0.1
T 40200 52800 5 10 0 1 270 0 1
footprint=0603
T 40300 53100 5 10 1 1 0 0 1
refdes=C4
T 40800 52800 5 10 1 1 0 0 1
value=0.1 uF
}
N 41100 53000 41400 53000 4
C 40100 52700 1 0 0 gnd-1.sym
C 40200 53300 1 0 0 inductor-1.sym
{
T 40400 53800 5 10 0 0 0 0 1
device=INDUCTOR
T 40400 54000 5 10 0 0 0 0 1
symversion=0.1
T 40200 53300 5 10 0 1 0 0 1
footprint=0805
T 40400 53600 5 10 1 1 0 0 1
refdes=L2
T 40700 53600 5 10 1 1 0 0 1
value=10 uH
}
N 41300 53000 41300 53400 4
N 41300 53400 41100 53400 4
N 40200 53400 39900 53400 4
{
T 39900 53500 5 10 1 1 0 0 1
netname=Vmc
}
C 39900 53400 1 180 0 busripper-1.sym
{
T 39900 53000 5 8 0 0 180 0 1
device=none
}
N 41400 52600 41300 52600 4
N 41300 52600 41300 52200 4
N 39900 52200 41400 52200 4
{
T 39900 52300 5 10 1 1 0 0 1
netname=Vmc
}
C 39900 52200 1 180 0 busripper-1.sym
{
T 39900 51800 5 8 0 0 180 0 1
device=none
}
C 41200 45900 1 0 0 gnd-1.sym
N 41400 47000 41300 47000 4
N 41300 47000 41300 46200 4
N 41400 46600 41300 46600 4
N 41400 46200 41300 46200 4
C 40200 51500 1 0 0 capacitor-1.sym
{
T 40400 52200 5 10 0 0 0 0 1
device=CAPACITOR
T 40400 52400 5 10 0 0 0 0 1
symversion=0.1
T 40200 51500 5 10 0 1 270 0 1
footprint=0603
T 40300 51800 5 10 1 1 0 0 1
refdes=C5
T 40800 51500 5 10 1 1 0 0 1
value=0.1 uF
}
N 41100 51700 41300 51700 4
N 41300 51700 41300 52200 4
C 40100 51400 1 0 0 gnd-1.sym
N 45700 49400 46500 49400 4
{
T 46000 49500 5 10 1 1 0 0 1
netname=BEEP
}
C 46500 49400 1 270 0 busripper-1.sym
{
T 46900 49400 5 8 0 0 270 0 1
device=none
}
C 40300 50700 1 270 0 beeper-1.sym
{
T 41200 50400 5 10 0 0 270 0 1
device=BEEPER
T 41400 50400 5 10 0 0 270 0 1
symversion=0.1
T 40300 50700 5 10 0 0 270 0 1
footprint=HPS16
T 40200 50100 5 10 1 1 90 0 1
refdes=U3
}
C 40500 49400 1 0 0 gnd-1.sym
N 39000 52700 39500 52700 4
{
T 39100 52800 5 10 1 1 0 0 1
netname=Vmc
}
C 39500 52700 1 270 0 busripper-1.sym
{
T 39900 52700 5 8 0 0 270 0 1
device=none
}
C 39500 52200 1 270 0 busripper-1.sym
{
T 39900 52200 5 8 0 0 270 0 1
device=none
}
C 39500 49800 1 270 0 busripper-1.sym
{
T 39900 49800 5 8 0 0 270 0 1
device=none
}
N 39000 46000 39500 46000 4
{
T 39100 46100 5 10 1 1 0 0 1
netname=Vpwr
}
C 39500 46000 1 270 0 busripper-1.sym
{
T 39900 46000 5 8 0 0 270 0 1
device=none
}
N 37900 46400 39500 46400 4
{
T 39200 46500 5 10 1 1 0 0 1
netname=Vcc
}
C 39500 46400 1 270 0 busripper-1.sym
{
T 39900 46400 5 8 0 0 270 0 1
device=none
}
C 39500 44900 1 270 0 busripper-1.sym
{
T 39900 44900 5 8 0 0 270 0 1
device=none
}
N 40600 50700 40600 50900 4
N 40600 50900 39900 50900 4
{
T 39900 51000 5 10 1 1 0 0 1
netname=BEEP
}
C 39900 50900 1 180 0 busripper-1.sym
{
T 39900 50500 5 8 0 0 180 0 1
device=none
}
C 46900 54900 1 180 0 busripper-1.sym
{
T 46900 54500 5 8 0 0 180 0 1
device=none
}
C 46900 52400 1 180 0 busripper-1.sym
{
T 46900 52000 5 8 0 0 180 0 1
device=none
}
C 46900 49600 1 180 0 busripper-1.sym
{
T 46900 49200 5 8 0 0 180 0 1
device=none
}
N 47300 51200 46900 51200 4
{
T 46900 51300 5 10 1 1 0 0 1
netname=SDA
}
C 46900 51200 1 180 0 busripper-1.sym
{
T 46900 50800 5 8 0 0 180 0 1
device=none
}
N 47300 50800 46900 50800 4
{
T 46900 50900 5 10 1 1 0 0 1
netname=SCL
}
C 46900 50800 1 180 0 busripper-1.sym
{
T 46900 50400 5 8 0 0 180 0 1
device=none
}
N 45700 53000 46500 53000 4
{
T 46100 53100 5 10 1 1 0 0 1
netname=SDA
}
C 46500 53000 1 270 0 busripper-1.sym
{
T 46900 53000 5 8 0 0 270 0 1
device=none
}
N 45700 52600 46500 52600 4
{
T 46100 52700 5 10 1 1 0 0 1
netname=SCL
}
C 46500 52600 1 270 0 busripper-1.sym
{
T 46900 52600 5 8 0 0 270 0 1
device=none
}
C 46900 48600 1 180 0 busripper-1.sym
{
T 46900 48200 5 8 0 0 180 0 1
device=none
}
N 48200 43500 46900 43500 4
{
T 46900 43600 5 10 1 1 0 0 1
netname=SENS
}
C 46900 43500 1 180 0 busripper-1.sym
{
T 46900 43100 5 8 0 0 180 0 1
device=none
}
N 48700 44600 46900 44600 4
{
T 46900 44700 5 10 1 1 0 0 1
netname=Kamp
}
C 46900 44600 1 180 0 busripper-1.sym
{
T 46900 44200 5 8 0 0 180 0 1
device=none
}
C 51500 47700 1 90 0 capacitor-1.sym
{
T 50800 47900 5 10 0 0 90 0 1
device=CAPACITOR
T 51000 48000 5 10 1 1 90 0 1
refdes=C13
T 50600 47900 5 10 0 0 90 0 1
symversion=0.1
T 51800 47900 5 10 1 1 90 0 1
value=0.1 uF
T 51500 47700 5 10 0 0 90 0 1
footprint=0603
}
C 51200 47400 1 0 0 gnd-1.sym
N 45700 51800 46500 51800 4
{
T 46000 51900 5 10 1 1 0 0 1
netname=SENS
}
C 46500 51800 1 270 0 busripper-1.sym
{
T 46900 51800 5 8 0 0 270 0 1
device=none
}
C 40600 47400 1 270 0 switch-pushbutton-no-1.sym
{
T 41100 46800 5 10 1 1 90 0 1
refdes=S1
T 41200 47000 5 10 0 0 270 0 1
device=SWITCH_PUSHBUTTON_NO
T 40600 47400 5 10 0 0 180 0 1
footprint=BTN2x4smd
}
N 40600 47400 40600 47600 4
N 40600 47600 39900 47600 4
{
T 39900 47700 5 10 1 1 0 0 1
netname=BTN
}
C 39900 47600 1 180 0 busripper-1.sym
{
T 39900 47200 5 8 0 0 180 0 1
device=none
}
C 40500 46100 1 0 0 gnd-1.sym
N 45700 50600 46500 50600 4
{
T 46100 50700 5 10 1 1 0 0 1
netname=BTN
}
C 46500 50600 1 270 0 busripper-1.sym
{
T 46900 50600 5 8 0 0 270 0 1
device=none
}
N 45700 49800 46500 49800 4
{
T 46200 49900 5 10 1 1 0 0 1
netname=\_ON\_
}
C 46500 49800 1 270 0 busripper-1.sym
{
T 46900 49800 5 8 0 0 270 0 1
device=none
}
N 45700 51000 46500 51000 4
{
T 46100 51100 5 10 1 1 0 0 1
netname=\_PWR\_
}
C 46500 51000 1 270 0 busripper-1.sym
{
T 46900 51000 5 8 0 0 270 0 1
device=none
}
N 41400 49000 39900 49000 4
{
T 40400 49100 5 10 1 1 0 6 1
netname=DRST
}
C 39900 49000 1 90 1 busripper-1.sym
{
T 39500 49000 5 8 0 0 270 2 1
device=none
}
N 45700 51400 46500 51400 4
{
T 46000 51500 5 10 1 1 0 0 1
netname=Kamp
}
C 46500 51400 1 270 0 busripper-1.sym
{
T 46900 51400 5 8 0 0 270 0 1
device=none
}
C 44000 44800 1 0 0 led-3.sym
{
T 44950 45450 5 10 0 0 0 0 1
device=LED
T 44000 44800 5 10 0 1 0 6 1
footprint=0805
T 44250 45350 5 10 1 1 0 0 1
refdes=VD6
}
C 46000 44900 1 0 1 resistor-2.sym
{
T 45600 45250 5 10 0 0 0 6 1
device=RESISTOR
T 46000 44900 5 10 0 1 0 6 1
footprint=0603
T 45700 45200 5 10 1 1 0 6 1
refdes=R10
T 45700 44700 5 10 1 1 0 6 1
value=1K
}
C 43700 44900 1 270 1 gnd-1.sym
N 44900 45000 45100 45000 4
N 46000 45000 46500 45000 4
{
T 46100 45100 5 10 1 1 0 0 1
netname=LED
}
C 46500 45000 1 270 0 busripper-1.sym
{
T 46900 45000 5 8 0 0 270 0 1
device=none
}
N 45700 48200 46500 48200 4
{
T 46100 48300 5 10 1 1 0 0 1
netname=LED
}
C 46500 48200 1 270 0 busripper-1.sym
{
T 46900 48200 5 8 0 0 270 0 1
device=none
}
C 46100 44300 1 180 0 capacitor-2.sym
{
T 45900 43600 5 10 0 0 180 0 1
device=POLARIZED_CAPACITOR
T 45900 43400 5 10 0 0 180 0 1
symversion=0.1
T 46100 44300 5 10 0 0 270 0 1
footprint=TANT_A
T 45500 44400 5 10 1 1 0 0 1
refdes=C6
T 45300 43600 5 10 1 1 0 0 1
value=22 uF
}
C 44900 44200 1 270 0 gnd-1.sym
N 46100 44100 46500 44100 4
{
T 46100 44200 5 10 1 1 0 0 1
netname=Vmc
}
C 46500 44100 1 270 0 busripper-1.sym
{
T 46900 44100 5 8 0 0 270 0 1
device=none
}
C 28800 49900 1 0 0 STC4054.sym
{
T 29800 51000 5 10 0 1 0 0 1
footprint=SOT23-5
T 29600 51900 5 10 1 1 0 0 1
refdes=U1
T 29700 51700 5 8 1 1 0 5 1
device=STC4054
}
N 28400 51400 28800 51400 4
C 30800 49700 1 90 0 resistor-2.sym
{
T 30450 50100 5 10 0 0 90 0 1
device=RESISTOR
T 30800 49700 5 10 0 1 0 0 1
footprint=0603
T 30500 50000 5 10 1 1 90 0 1
refdes=R1
T 31100 50000 5 10 1 1 90 0 1
value=1.3K
}
C 27100 50100 1 0 0 usbmini.sym
{
T 27500 62750 5 10 0 0 0 0 1
footprint=microUSB-5SB
T 27700 51700 5 10 1 1 0 0 1
refdes=XS1
T 27200 51700 5 10 1 1 0 0 1
device=USB
}
N 28800 49200 28800 50600 4
N 30700 50600 30600 50600 4
N 28400 50200 28400 49700 4
N 28400 49700 31400 49700 4
N 29700 49900 29700 49700 4
N 31400 50900 31400 51400 4
N 31400 50200 31400 49700 4
C 31300 49400 1 0 0 gnd-1.sym
C 31200 50900 1 270 0 battery-1.sym
{
T 31200 50700 5 10 1 1 90 0 1
refdes=B1
T 32100 50600 5 10 0 0 270 0 1
device=BATTERY
T 32500 50600 5 10 0 0 270 0 1
symversion=0.1
T 31200 50900 5 10 0 0 0 0 1
footprint=SIP2
}
N 30600 51400 32200 51400 4
N 45700 54200 46500 54200 4
{
T 46000 54300 5 10 1 1 0 0 1
netname=CHRG
}
C 46500 54200 1 270 0 busripper-1.sym
{
T 46900 54200 5 8 0 0 270 0 1
device=none
}
N 28800 49200 39500 49200 4
{
T 38900 49300 5 10 1 1 0 0 1
netname=CHRG
}
C 39500 49200 1 270 0 busripper-1.sym
{
T 39900 49200 5 8 0 0 270 0 1
device=none
}
C 37200 54400 1 0 0 schottky-1.sym
{
T 37522 55072 5 10 0 0 0 0 1
device=BAT54WS
T 37541 55232 5 10 0 1 0 0 1
footprint=SOD323-2
T 38000 54800 5 10 1 1 0 0 1
refdes=VD2
}
N 28600 51400 28600 54600 4
N 28600 54600 37200 54600 4
N 37200 55200 37000 55200 4
N 37000 55200 37000 54600 4
N 38100 55200 39500 55200 4
{
T 39000 55300 5 10 1 1 0 0 1
netname=Vchrg
}
C 39500 55200 1 270 0 busripper-1.sym
{
T 39900 55200 5 8 0 0 270 0 1
device=none
}
N 45700 50200 46500 50200 4
{
T 46000 50300 5 10 1 1 0 0 1
netname=Vchrg
}
C 46500 50200 1 270 0 busripper-1.sym
{
T 46900 50200 5 8 0 0 270 0 1
device=none
}
C 37200 55100 1 0 0 resistor-2.sym
{
T 37600 55450 5 10 0 0 0 0 1
device=RESISTOR
T 37300 55400 5 10 1 1 0 0 1
refdes=R8
T 37600 55400 5 10 1 1 0 0 1
value=10K
T 37200 55100 5 10 0 1 0 0 1
footprint=0603
}
N 38100 54000 39500 54000 4
{
T 39100 54100 5 10 1 1 0 0 1
netname=Vbat
}
C 39500 54000 1 270 0 busripper-1.sym
{
T 39900 54000 5 8 0 0 270 0 1
device=none
}
N 45700 54600 46500 54600 4
{
T 46100 54700 5 10 1 1 0 0 1
netname=Vbat
}
C 46500 54600 1 270 0 busripper-1.sym
{
T 46900 54600 5 8 0 0 270 0 1
device=none
}
N 38100 54600 39000 54600 4
C 37200 53900 1 0 0 resistor-2.sym
{
T 37600 54250 5 10 0 0 0 0 1
device=RESISTOR
T 37300 54200 5 10 1 1 0 0 1
refdes=R9
T 37600 54200 5 10 1 1 0 0 1
value=10K
T 37200 53900 5 10 0 1 0 0 1
footprint=0603
}
N 37200 54000 37000 54000 4
N 37000 54000 37000 53400 4
N 38100 53400 39000 53400 4
C 39500 51100 1 90 0 schottky-1.sym
{
T 38828 51422 5 10 0 0 90 0 1
device=PESD5V0S1BA
T 38668 51441 5 10 0 1 90 0 1
footprint=SOD323-2
T 39000 51400 5 10 1 1 90 0 1
refdes=VD5
}
C 39200 50800 1 0 0 gnd-1.sym
N 39300 52000 39300 52200 4
C 28800 52900 1 0 0 resistor-2.sym
{
T 29200 53250 5 10 0 0 0 0 1
device=RESISTOR
T 28900 53200 5 10 1 1 0 0 1
refdes=R17
T 29300 53200 5 10 1 1 0 0 1
value=10K
T 28800 52900 5 10 0 1 0 0 1
footprint=0603
}
N 28800 53000 28600 53000 4
C 30100 52900 1 90 0 gnd-1.sym
N 29700 53000 29800 53000 4
N 50600 46700 50600 46500 4
N 50600 46500 49600 46500 4
N 49600 46500 49600 48600 4
C 48200 43400 1 0 0 resistor-2.sym
{
T 48600 43750 5 10 0 0 0 0 1
device=RESISTOR
T 48500 43700 5 10 1 1 0 0 1
refdes=R18
T 48200 43400 5 10 0 1 0 0 1
footprint=0603
T 48500 43200 5 10 1 1 0 0 1
value=1K
}
N 49100 43500 51300 43500 4
N 37500 48400 37400 48400 4
N 37400 48400 37400 48800 4
N 37400 48800 39500 48800 4
{
T 39100 48900 5 10 1 1 0 0 1
netname=Vmc
}
C 39500 48800 1 270 0 busripper-1.sym
{
T 39900 48800 5 8 0 0 270 0 1
device=none
}
